<svg xmlns="http://www.w3.org/2000/svg" width="17.066" height="42.517" viewBox="0 0 17.066 42.517">
  <path id="center_chest" d="M274.291,252.983c0-.917-1.212-1.865-1.153-4.293s-2.275-6.218-.44-8.35,4.273-5.033,3.918-5.567a9.353,9.353,0,0,1-.22-3.761c.148-.651-.823-2.1-1.683-2.753s-6.146.734-6.146.734-5.29-1.386-6.148-.734-1.829,2.1-1.681,2.753a9.408,9.408,0,0,1-.22,3.761c-.356.533,2.081,3.435,3.917,5.567s-.5,5.922-.44,8.35-1.153,3.375-1.153,4.293.386,3.405-.147,5.123a4.892,4.892,0,0,0,.563,3.849c.445,1.036-.16,3.345,2.505,5.922,0,0,1.226,1.716,2.8,1.716s2.8-1.716,2.8-1.716c2.664-2.577,2.061-4.886,2.5-5.922a4.886,4.886,0,0,0,.564-3.849C273.907,256.389,274.291,253.9,274.291,252.983Z" transform="translate(-260.035 -227.577)" fill="#ffebcc" stroke="#d39325" stroke-miterlimit="10" stroke-width="1"/>
</svg>
