<svg xmlns="http://www.w3.org/2000/svg" width="32.587" height="121.911" viewBox="0 0 32.587 121.911">
    <path id="left_thigh" data-name="left_thigh" d="M227.167,422.572s.839-2.389,1.808-4.455-.388-3.162-.582-6-1.159-5.288,2.517-7.389,5.681-3.972,2.647-8.555-6.2-1.29-7.423,2.067-3.55.386-4.326-.26S211.1,396.5,215.1,408.245s4.842,15.617,5.939,26.4,6.068,34.342,6.132,42.927-.452,22.4-2.13,24.656-3.357,12.651,2.324,12.522,3.485-4.324,8.908-1.808,9.295,2.777,8.844-1.1,2-6.972-.323-8.779-6.584-6.9-8.973-21.686S226.459,426.121,227.167,422.572Z" transform="translate(-214.151 -393.917)" fill="#ffebcc" stroke="#d39325" stroke-miterlimit="10" stroke-width="1"/>
</svg>
