<svg xmlns="http://www.w3.org/2000/svg" width="20.016" height="14.069" viewBox="0 0 20.016 14.069">
  <path id="left_rib12" d="M260.186,299.86a18.713,18.713,0,0,1-3.679,2.11c-2.056.866-11.96,5.677-13.041,7.2s-1.726,4.862,1.167,3.136,11.093-7.734,13.162-8.545S263.6,298.886,260.186,299.86Z" transform="translate(-242.048 -299.214)" fill="#ffebcc" stroke="#d39325" stroke-miterlimit="10" stroke-width="1"/>
</svg>
