<svg xmlns="http://www.w3.org/2000/svg" width="11.438" height="10.718" viewBox="0 0 11.438 10.718">
  <path id="right_eye" d="M285.17,157.839s.056,2.742-3.19,2.8-4.646-.728-6.046-3.246-1.791-4.926,0-5.765a8.512,8.512,0,0,1,7.053.615c1.9,1.232,1.623,2.184,1.735,2.688S285.17,157.839,285.17,157.839Z" transform="translate(-274.232 -150.422)" fill="#d39325" stroke="#d39325" stroke-miterlimit="10" stroke-width="1"/>
</svg>
